loop:
0.3202036982124743
0.32291706904870164
0.3382548976534836

In labelled but not in unlabelled
Undetected by Prominance
0.3201558714118358
0.3255691462841107  --> detected 0.3326967243792741
0.33269671797927403
0.3372521016400949

In unlabelled but not in lablelled
Detected extra
0.3202036982124743  -> correct
0.32291706904870164 -> correct
0.3382548976534836 -> correct