{
    "distance": null,
    "height-bounds": [
        0.1443000135332113,
        null
    ],
    "prominence-bounds": [
        null,
        null
    ],
    "threshold-bounds": [
        null,
        null
    ],
    "width-bounds": [
        null,
        null
    ]
}