\BOOKMARK [0][-]{chapter.1}{Context}{}% 1
\BOOKMARK [1][-]{section.1.1}{Problem definition}{chapter.1}% 2
\BOOKMARK [1][-]{section.1.2}{Literature review}{chapter.1}% 3
\BOOKMARK [1][-]{section.1.3}{Problem significance}{chapter.1}% 4
\BOOKMARK [1][-]{section.1.4}{Project considerations}{chapter.1}% 5
\BOOKMARK [1][-]{section.1.5}{Aims and Objectives}{chapter.1}% 6
\BOOKMARK [0][-]{chapter.2}{Technical documentation}{}% 7
\BOOKMARK [1][-]{section.2.1}{Choice of approaches}{chapter.2}% 8
\BOOKMARK [1][-]{section.2.2}{Data collection and testing}{chapter.2}% 9
\BOOKMARK [1][-]{section.2.3}{Peak Property-based Counting Algorithm \(PPCA\)}{chapter.2}% 10
\BOOKMARK [2][-]{subsection.2.3.1}{Data preparation \046 visualization}{section.2.3}% 11
\BOOKMARK [2][-]{subsection.2.3.2}{Training}{section.2.3}% 12
\BOOKMARK [2][-]{subsection.2.3.3}{Classification}{section.2.3}% 13
\BOOKMARK [2][-]{subsection.2.3.4}{Evaluating \046 tuning}{section.2.3}% 14
\BOOKMARK [1][-]{section.2.4}{Shape-based Template Matching Framework \(STMF\)}{chapter.2}% 15
\BOOKMARK [2][-]{subsection.2.4.1}{Data preparation \046 visualization}{section.2.4}% 16
\BOOKMARK [2][-]{subsection.2.4.2}{Training}{section.2.4}% 17
\BOOKMARK [2][-]{subsection.2.4.3}{Classification}{section.2.4}% 18
\BOOKMARK [2][-]{subsection.2.4.4}{Evaluating \046 tuning}{section.2.4}% 19
\BOOKMARK [1][-]{section.2.5}{Convolutional neural network \(CNN\)}{chapter.2}% 20
\BOOKMARK [2][-]{subsection.2.5.1}{Data preparation \046 visualization}{section.2.5}% 21
\BOOKMARK [2][-]{subsection.2.5.2}{Training}{section.2.5}% 22
\BOOKMARK [2][-]{subsection.2.5.3}{Classification}{section.2.5}% 23
\BOOKMARK [2][-]{subsection.2.5.4}{Evaluating \046 tuning}{section.2.5}% 24
\BOOKMARK [0][-]{chapter.3}{Project planning}{}% 25
\BOOKMARK [1][-]{section.3.1}{Management and plannig}{chapter.3}% 26
\BOOKMARK [1][-]{section.3.2}{Evidence of activity}{chapter.3}% 27
\BOOKMARK [1][-]{section.3.3}{Reflection}{chapter.3}% 28
\BOOKMARK [0][-]{chapter.4}{Conclusions}{}% 29
\BOOKMARK [0][-]{chapter.5}{Appendices}{}% 30
\BOOKMARK [1][-]{section.5.1}{Database schema diagram}{chapter.5}% 31
\BOOKMARK [1][-]{section.5.2}{Implementation of the STMF averaging functions}{chapter.5}% 32
\BOOKMARK [1][-]{section.5.3}{CNN op-level execution graph}{chapter.5}% 33
\BOOKMARK [1][-]{section.5.4}{Benchmark computer specifications for measuring CNN performance}{chapter.5}% 34
